-----------------------------------------------------------------------------
Download File
-----------------------------------------------------------------------------
git init
git clone https://github.com/codehafeez/test1.git


or
git init
git clone https://codehafeez@bitbucket.org/codehafeez/test1.git
-----------------------------------------------------------------------------



-----------------------------------------------------------------------------
Upload Files
-----------------------------------------------------------------------------
git init
git add .
git commit -m "first commit"
git remote add origin https://github.com/codehafeez/test1.git
git push -u origin main




-----------------------------------------------------------------------------
Update Files
-----------------------------------------------------------------------------
git add . // all files
or
git add index2.html // specific file


git commit -m "second commit"
git push -f origin main
-----------------------------------------------------------------------------



-----------------------------------------------------------------------------
Delete File
-----------------------------------------------------------------------------
git rm file1.txt
git commit -m "remove file1.txt"
git push -f origin main
-----------------------------------------------------------------------------



-----------------------------------------------------------------------------
Download Previous Backup - Go Back Version
-----------------------------------------------------------------------------
git log
git checkout (9d8037c9b3d5d195a5730e863a4d32cc565101dd) => <commit-id>

====>
====>
====>
git reset --hard (9d8037c9b3d5d195a5730e863a4d32cc565101dd) => <commit-id>
git add .
git commit -m "abc1"
git push -f origin main
-----------------------------------------------------------------------------




-----------------------------------------------------------------------------
Bitbucket Push Command 
-----------------------------------------------------------------------------
git init
git add .
git commit -m "Initial Commit"
git remote add origin https://codehafeez@bitbucket.org/codehafeez/reactnative-example.git
git pull origin master
git push origin master
-----------------------------------------------------------------------------
